{
  "Customer": {
    "dbConfig": {
      "host": "localhost",
      "port": 5984,
      "dbName": "customers"
    },
    "credit": {
      "initialLimit": 100,
      "initialDays": 1
    }
  },
  "LogLevel": "info",
  "BrokerConnection": [
      {
          "host": "localhost",
          "port": 61613,
          "connectHeaders":{
            "host": "/",
            "login": "admin",
            "passcode": "admin",
            "heart-beat": "5000,5000"
          }
      }
      
  ],
  "DBConnection":{
    "user": "webuser",
    "password": "p@ssw0rd",
    "server": "172.17.50.6", 
    "parseJSON": true
  },
  "IDHeader": "DWeb"
}